Loading plugins phase: Elapsed time ==> 0s.338ms
<CYPRESSTAG name="CyDsfit arguments...">
cydsfit arguments: -.fdsnotice -.fdswarpdepfile=warp_dependencies.txt -.fdselabdepfile=elab_dependencies.txt -.fdsbldfile=generated_files.txt -.fdsreffile=referenced_files.txt -p C:\Users\tomgm\Documents\PacAveResearch\PSOC\workareas\winter_2016_repository\MPW6050_BC127_SPP_Latency.cydsn\MPW6050_BC127_SPP_Latency.cyprj -d CY8C4247AZI-M485 -s C:\Users\tomgm\Documents\PacAveResearch\PSOC\workareas\winter_2016_repository\MPW6050_BC127_SPP_Latency.cydsn\Generated_Source\PSoC4 -- -yv2 -q10 -ygs -o2 -v3 -.fftcfgtype=LE</CYPRESSTAG>
<CYPRESSTAG name="Design elaboration results...">
ADD: fit.M0032: warning: Clock Warning: (bc127_uart's accuracy range '7.385 MHz +/- 2%, (7.237 MHz - 7.532 MHz)' is not within the specified tolerance range '7.373 MHz +/- 2%, (7.225 MHz - 7.52 MHz)'.).
 * C:\Users\tomgm\Documents\PacAveResearch\PSOC\workareas\winter_2016_repository\MPW6050_BC127_SPP_Latency.cydsn\MPW6050_BC127_SPP_Latency.cydwr (bc127_uart)
 * C:\Users\tomgm\Documents\PacAveResearch\PSOC\workareas\winter_2016_repository\MPW6050_BC127_SPP_Latency.cydsn\TopDesign\TopDesign.cysch (Instance:bc127_uart)

</CYPRESSTAG>
Elaboration phase: Elapsed time ==> 2s.358ms
<CYPRESSTAG name="HDL generation results...">
</CYPRESSTAG>
HDL generation phase: Elapsed time ==> 0s.104ms
<CYPRESSTAG name="Synthesis results...">

     | | | | | | |
   _________________
  -|               |-
  -|               |-
  -|               |-
  -|    CYPRESS    |-
  -|               |-
  -|               |-   Warp Verilog Synthesis Compiler: Version 6.3 IR 41
  -|               |-   Copyright (C) 1991-2001 Cypress Semiconductor
   |_______________|
     | | | | | | |

======================================================================
Compiling:  MPW6050_BC127_SPP_Latency.v
Program  :   C:\Program Files (x86)\Cypress\PSoC Creator\4.0\PSoC Creator\warp\bin\warp.exe
Options  :    -yv2 -q10 -ygs -o2 -v3 -.fftcfgtype=LE -ya -.fftprj=C:\Users\tomgm\Documents\PacAveResearch\PSOC\workareas\winter_2016_repository\MPW6050_BC127_SPP_Latency.cydsn\MPW6050_BC127_SPP_Latency.cyprj -dcpsoc3 MPW6050_BC127_SPP_Latency.v -verilog
======================================================================

======================================================================
Compiling:  MPW6050_BC127_SPP_Latency.v
Program  :   C:\Program Files (x86)\Cypress\PSoC Creator\4.0\PSoC Creator\warp\bin\warp.exe
Options  :    -yv2 -q10 -ygs -o2 -v3 -.fftcfgtype=LE -ya -.fftprj=C:\Users\tomgm\Documents\PacAveResearch\PSOC\workareas\winter_2016_repository\MPW6050_BC127_SPP_Latency.cydsn\MPW6050_BC127_SPP_Latency.cyprj -dcpsoc3 MPW6050_BC127_SPP_Latency.v -verilog
======================================================================

======================================================================
Compiling:  MPW6050_BC127_SPP_Latency.v
Program  :   vlogfe
Options  :    -yv2 -q10 -ygs -o2 -v3 -.fftcfgtype=LE -ya -.fftprj=C:\Users\tomgm\Documents\PacAveResearch\PSOC\workareas\winter_2016_repository\MPW6050_BC127_SPP_Latency.cydsn\MPW6050_BC127_SPP_Latency.cyprj -dcpsoc3 -verilog MPW6050_BC127_SPP_Latency.v
======================================================================

vlogfe V6.3 IR 41:  Verilog parser
Sun Jun 25 17:43:11 2017


======================================================================
Compiling:  MPW6050_BC127_SPP_Latency.v
Program  :   vpp
Options  :    -yv2 -q10 MPW6050_BC127_SPP_Latency.v
======================================================================

vpp V6.3 IR 41:  Verilog Pre-Processor
Sun Jun 25 17:43:11 2017

Flattening file 'C:\Program Files (x86)\Cypress\PSoC Creator\4.0\PSoC Creator\psoc\content\cyprimitives\CyPrimitives.cylib\cy_virtualmux_v1_0\cy_virtualmux_v1_0.v'
Flattening file 'C:\Program Files (x86)\Cypress\PSoC Creator\4.0\PSoC Creator\psoc\content\cyprimitives\CyPrimitives.cylib\ZeroTerminal\ZeroTerminal.v'
Flattening file 'C:\Program Files (x86)\Cypress\PSoC Creator\4.0\PSoC Creator\psoc\content\cyprimitives\CyPrimitives.cylib\or_v1_0\or_v1_0.v'
Flattening file 'C:\Program Files (x86)\Cypress\PSoC Creator\4.0\PSoC Creator\psoc\content\cyprimitives\CyPrimitives.cylib\CyControlReg_v1_80\CyControlReg_v1_80.v'
Flattening file 'C:\Program Files (x86)\Cypress\PSoC Creator\4.0\PSoC Creator\warp\lib\common\cypress.v'
Flattening file 'C:\Program Files (x86)\Cypress\PSoC Creator\4.0\PSoC Creator\warp\lib\common\cy_psoc3_inc.v'

vpp:  No errors.

Library 'work' => directory 'lcpsoc3'
General_symbol_table
General_symbol_table
Linking 'C:\Program Files (x86)\Cypress\PSoC Creator\4.0\PSoC Creator\warp\lib\common\std.vhd'.
Linking 'C:\Program Files (x86)\Cypress\PSoC Creator\4.0\PSoC Creator\warp\lib\common\cypress.vhd'.
Linking 'C:\Program Files (x86)\Cypress\PSoC Creator\4.0\PSoC Creator\warp\lib\common\work\cypress.vif'.
Linking 'C:\Program Files (x86)\Cypress\PSoC Creator\4.0\PSoC Creator\warp\lib\ieee\work\stdlogic.vif'.
Linking 'C:\Program Files (x86)\Cypress\PSoC Creator\4.0\PSoC Creator\warp\lib\common\stdlogic\lpmpkg.vif'.
Linking 'C:\Program Files (x86)\Cypress\PSoC Creator\4.0\PSoC Creator\warp\lib\common\stdlogic\rtlpkg.vif'.
Linking 'C:\Program Files (x86)\Cypress\PSoC Creator\4.0\PSoC Creator\warp\lib\common\stdlogic\mod_cnst.vif'.
Linking 'C:\Program Files (x86)\Cypress\PSoC Creator\4.0\PSoC Creator\warp\lib\common\stdlogic\mod_mthv.vif'.
Linking 'C:\Program Files (x86)\Cypress\PSoC Creator\4.0\PSoC Creator\warp\lib\common\stdlogic\mod_genv.vif'.
Using control file 'MPW6050_BC127_SPP_Latency.ctl'.

vlogfe:  No errors.


======================================================================
Compiling:  MPW6050_BC127_SPP_Latency.v
Program  :   tovif
Options  :    -yv2 -q10 -ygs -o2 -v3 -.fftcfgtype=LE -ya -.fftprj=C:\Users\tomgm\Documents\PacAveResearch\PSOC\workareas\winter_2016_repository\MPW6050_BC127_SPP_Latency.cydsn\MPW6050_BC127_SPP_Latency.cyprj -dcpsoc3 -verilog MPW6050_BC127_SPP_Latency.v
======================================================================

tovif V6.3 IR 41:  High-level synthesis
Sun Jun 25 17:43:11 2017

Linking 'C:\Program Files (x86)\Cypress\PSoC Creator\4.0\PSoC Creator\warp\lib\common\std.vhd'.
Linking 'C:\Program Files (x86)\Cypress\PSoC Creator\4.0\PSoC Creator\warp\lib\common\cypress.vhd'.
Linking 'C:\Program Files (x86)\Cypress\PSoC Creator\4.0\PSoC Creator\warp\lib\common\work\cypress.vif'.
Linking 'C:\Program Files (x86)\Cypress\PSoC Creator\4.0\PSoC Creator\warp\lib\ieee\work\stdlogic.vif'.
Linking 'C:\Program Files (x86)\Cypress\PSoC Creator\4.0\PSoC Creator\warp\lib\common\stdlogic\lpmpkg.vif'.
Linking 'C:\Program Files (x86)\Cypress\PSoC Creator\4.0\PSoC Creator\warp\lib\common\stdlogic\rtlpkg.vif'.
Linking 'C:\Program Files (x86)\Cypress\PSoC Creator\4.0\PSoC Creator\warp\lib\common\stdlogic\mod_cnst.vif'.
Linking 'C:\Program Files (x86)\Cypress\PSoC Creator\4.0\PSoC Creator\warp\lib\common\stdlogic\mod_mthv.vif'.
Linking 'C:\Program Files (x86)\Cypress\PSoC Creator\4.0\PSoC Creator\warp\lib\common\stdlogic\mod_genv.vif'.
Linking 'C:\Users\tomgm\Documents\PacAveResearch\PSOC\workareas\winter_2016_repository\MPW6050_BC127_SPP_Latency.cydsn\codegentemp\MPW6050_BC127_SPP_Latency.ctl'.
Linking 'C:\Program Files (x86)\Cypress\PSoC Creator\4.0\PSoC Creator\psoc\content\cyprimitives\CyPrimitives.cylib\cy_virtualmux_v1_0\cy_virtualmux_v1_0.v'.
Linking 'C:\Users\tomgm\Documents\PacAveResearch\PSOC\workareas\winter_2016_repository\MPW6050_BC127_SPP_Latency.cydsn\codegentemp\MPW6050_BC127_SPP_Latency.v'.
Linking 'C:\Program Files (x86)\Cypress\PSoC Creator\4.0\PSoC Creator\psoc\content\cyprimitives\CyPrimitives.cylib\ZeroTerminal\ZeroTerminal.v'.
Linking 'C:\Program Files (x86)\Cypress\PSoC Creator\4.0\PSoC Creator\psoc\content\cyprimitives\CyPrimitives.cylib\or_v1_0\or_v1_0.v'.
Linking 'C:\Program Files (x86)\Cypress\PSoC Creator\4.0\PSoC Creator\psoc\content\cyprimitives\CyPrimitives.cylib\CyControlReg_v1_80\CyControlReg_v1_80.v'.
Linking 'C:\Program Files (x86)\Cypress\PSoC Creator\4.0\PSoC Creator\warp\lib\common\cypress.v'.
Linking 'C:\Program Files (x86)\Cypress\PSoC Creator\4.0\PSoC Creator\warp\lib\common\cy_psoc3_inc.v'.

tovif:  No errors.


======================================================================
Compiling:  MPW6050_BC127_SPP_Latency.v
Program  :   topld
Options  :    -yv2 -q10 -ygs -o2 -v3 -.fftcfgtype=LE -ya -.fftprj=C:\Users\tomgm\Documents\PacAveResearch\PSOC\workareas\winter_2016_repository\MPW6050_BC127_SPP_Latency.cydsn\MPW6050_BC127_SPP_Latency.cyprj -dcpsoc3 -verilog MPW6050_BC127_SPP_Latency.v
======================================================================

topld V6.3 IR 41:  Synthesis and optimization
Sun Jun 25 17:43:11 2017

Linking 'C:\Program Files (x86)\Cypress\PSoC Creator\4.0\PSoC Creator\warp\lib\common\std.vhd'.
Linking 'C:\Program Files (x86)\Cypress\PSoC Creator\4.0\PSoC Creator\warp\lib\common\cypress.vhd'.
Linking 'C:\Program Files (x86)\Cypress\PSoC Creator\4.0\PSoC Creator\warp\lib\common\work\cypress.vif'.
Linking 'C:\Program Files (x86)\Cypress\PSoC Creator\4.0\PSoC Creator\warp\lib\ieee\work\stdlogic.vif'.
Linking 'C:\Program Files (x86)\Cypress\PSoC Creator\4.0\PSoC Creator\warp\lib\common\stdlogic\lpmpkg.vif'.
Linking 'C:\Program Files (x86)\Cypress\PSoC Creator\4.0\PSoC Creator\warp\lib\common\stdlogic\rtlpkg.vif'.
Linking 'C:\Program Files (x86)\Cypress\PSoC Creator\4.0\PSoC Creator\warp\lib\common\stdlogic\mod_cnst.vif'.
Linking 'C:\Program Files (x86)\Cypress\PSoC Creator\4.0\PSoC Creator\warp\lib\common\stdlogic\mod_mthv.vif'.
Linking 'C:\Program Files (x86)\Cypress\PSoC Creator\4.0\PSoC Creator\warp\lib\common\stdlogic\mod_genv.vif'.
Linking 'C:\Users\tomgm\Documents\PacAveResearch\PSOC\workareas\winter_2016_repository\MPW6050_BC127_SPP_Latency.cydsn\codegentemp\MPW6050_BC127_SPP_Latency.ctl'.
Linking 'C:\Program Files (x86)\Cypress\PSoC Creator\4.0\PSoC Creator\psoc\content\cyprimitives\CyPrimitives.cylib\cy_virtualmux_v1_0\cy_virtualmux_v1_0.v'.
Linking 'C:\Users\tomgm\Documents\PacAveResearch\PSOC\workareas\winter_2016_repository\MPW6050_BC127_SPP_Latency.cydsn\codegentemp\MPW6050_BC127_SPP_Latency.v'.
Linking 'C:\Program Files (x86)\Cypress\PSoC Creator\4.0\PSoC Creator\psoc\content\cyprimitives\CyPrimitives.cylib\ZeroTerminal\ZeroTerminal.v'.
Linking 'C:\Program Files (x86)\Cypress\PSoC Creator\4.0\PSoC Creator\psoc\content\cyprimitives\CyPrimitives.cylib\or_v1_0\or_v1_0.v'.
Linking 'C:\Program Files (x86)\Cypress\PSoC Creator\4.0\PSoC Creator\psoc\content\cyprimitives\CyPrimitives.cylib\CyControlReg_v1_80\CyControlReg_v1_80.v'.
Linking 'C:\Program Files (x86)\Cypress\PSoC Creator\4.0\PSoC Creator\warp\lib\common\cypress.v'.
Linking 'C:\Program Files (x86)\Cypress\PSoC Creator\4.0\PSoC Creator\warp\lib\common\cy_psoc3_inc.v'.
Linking 'C:\Program Files (x86)\Cypress\PSoC Creator\4.0\PSoC Creator\warp\lib\lcpsoc3\stdlogic\cpsoc3.vif'.

----------------------------------------------------------
Detecting unused logic.
----------------------------------------------------------
    User names
	\I2C_MPU6050:Net_1257\
	\I2C_MPU6050:uncfg_rx_irq\
	\I2C_MPU6050:Net_1099\
	\I2C_MPU6050:Net_1258\
	Net_8
	Net_9
	Net_16
	Net_17
	Net_18
	Net_19
	Net_20
	Net_21
	Net_22
	\SERIAL:Net_1257\
	\SERIAL:uncfg_rx_irq\
	\SERIAL:Net_1099\
	\SERIAL:Net_1258\
	Net_25
	Net_26
	Net_33
	Net_34
	Net_35
	Net_36
	Net_37
	Net_38
	Net_39
	\BC127_SERIAL:Net_1257\
	\BC127_SERIAL:uncfg_rx_irq\
	\BC127_SERIAL:Net_1099\
	\BC127_SERIAL:Net_1258\
	Net_42
	Net_43
	Net_52
	Net_53
	Net_54
	Net_55
	Net_56
	Net_57
	Net_58
	Net_167
	\Control_Reg_Flag:control_out_1\
	Net_168
	\Control_Reg_Flag:control_out_2\
	Net_169
	\Control_Reg_Flag:control_out_3\
	Net_170
	\Control_Reg_Flag:control_out_4\
	Net_171
	\Control_Reg_Flag:control_out_5\
	Net_172
	\Control_Reg_Flag:control_out_6\
	Net_173
	\Control_Reg_Flag:control_out_7\


Deleted 53 User equations/components.
Deleted 0 Synthesized equations/components.

------------------------------------------------------
Alias Detection
------------------------------------------------------
Aliasing \I2C_MPU6050:rx_wire\ to \I2C_MPU6050:select_s_wire\
Aliasing \I2C_MPU6050:sclk_s_wire\ to \I2C_MPU6050:select_s_wire\
Aliasing \I2C_MPU6050:mosi_s_wire\ to \I2C_MPU6050:select_s_wire\
Aliasing \I2C_MPU6050:miso_m_wire\ to \I2C_MPU6050:select_s_wire\
Aliasing zero to \I2C_MPU6050:select_s_wire\
Aliasing one to \I2C_MPU6050:tmpOE__sda_net_0\
Aliasing \I2C_MPU6050:tmpOE__scl_net_0\ to \I2C_MPU6050:tmpOE__sda_net_0\
Aliasing \I2C_MPU6050:cts_wire\ to \I2C_MPU6050:select_s_wire\
Aliasing \SERIAL:select_s_wire\ to \I2C_MPU6050:select_s_wire\
Aliasing \SERIAL:sclk_s_wire\ to \I2C_MPU6050:select_s_wire\
Aliasing \SERIAL:mosi_s_wire\ to \I2C_MPU6050:select_s_wire\
Aliasing \SERIAL:miso_m_wire\ to \I2C_MPU6050:select_s_wire\
Aliasing \SERIAL:tmpOE__tx_net_0\ to \I2C_MPU6050:tmpOE__sda_net_0\
Aliasing \SERIAL:tmpOE__rx_net_0\ to \I2C_MPU6050:tmpOE__sda_net_0\
Aliasing \SERIAL:cts_wire\ to \I2C_MPU6050:select_s_wire\
Aliasing \BC127_SERIAL:select_s_wire\ to \I2C_MPU6050:select_s_wire\
Aliasing \BC127_SERIAL:sclk_s_wire\ to \I2C_MPU6050:select_s_wire\
Aliasing \BC127_SERIAL:mosi_s_wire\ to \I2C_MPU6050:select_s_wire\
Aliasing \BC127_SERIAL:miso_m_wire\ to \I2C_MPU6050:select_s_wire\
Aliasing \BC127_SERIAL:tmpOE__tx_net_0\ to \I2C_MPU6050:tmpOE__sda_net_0\
Aliasing \BC127_SERIAL:tmpOE__rx_net_0\ to \I2C_MPU6050:tmpOE__sda_net_0\
Aliasing \BC127_SERIAL:tmpOE__cts_net_0\ to \I2C_MPU6050:tmpOE__sda_net_0\
Aliasing \BC127_SERIAL:tmpOE__rts_net_0\ to \I2C_MPU6050:tmpOE__sda_net_0\
Aliasing \Control_Reg_Flag:clk\ to \I2C_MPU6050:select_s_wire\
Aliasing \Control_Reg_Flag:rst\ to \I2C_MPU6050:select_s_wire\
Aliasing tmpOE__pin_flag_net_0 to \I2C_MPU6050:tmpOE__sda_net_0\
Removing Lhs of wire \I2C_MPU6050:rx_wire\[3] = \I2C_MPU6050:select_s_wire\[2]
Removing Lhs of wire \I2C_MPU6050:Net_1170\[6] = \I2C_MPU6050:Net_847\[1]
Removing Lhs of wire \I2C_MPU6050:sclk_s_wire\[7] = \I2C_MPU6050:select_s_wire\[2]
Removing Lhs of wire \I2C_MPU6050:mosi_s_wire\[8] = \I2C_MPU6050:select_s_wire\[2]
Removing Lhs of wire \I2C_MPU6050:miso_m_wire\[9] = \I2C_MPU6050:select_s_wire\[2]
Removing Rhs of wire zero[12] = \I2C_MPU6050:select_s_wire\[2]
Removing Rhs of wire one[16] = \I2C_MPU6050:tmpOE__sda_net_0\[11]
Removing Lhs of wire \I2C_MPU6050:tmpOE__scl_net_0\[19] = one[16]
Removing Lhs of wire \I2C_MPU6050:cts_wire\[28] = zero[12]
Removing Lhs of wire \SERIAL:select_s_wire\[53] = zero[12]
Removing Rhs of wire \SERIAL:rx_wire\[54] = \SERIAL:Net_1268\[55]
Removing Lhs of wire \SERIAL:Net_1170\[58] = \SERIAL:Net_847\[52]
Removing Lhs of wire \SERIAL:sclk_s_wire\[59] = zero[12]
Removing Lhs of wire \SERIAL:mosi_s_wire\[60] = zero[12]
Removing Lhs of wire \SERIAL:miso_m_wire\[61] = zero[12]
Removing Lhs of wire \SERIAL:tmpOE__tx_net_0\[63] = one[16]
Removing Lhs of wire \SERIAL:tmpOE__rx_net_0\[72] = one[16]
Removing Lhs of wire \SERIAL:cts_wire\[76] = zero[12]
Removing Lhs of wire \BC127_SERIAL:select_s_wire\[101] = zero[12]
Removing Rhs of wire \BC127_SERIAL:rx_wire\[102] = \BC127_SERIAL:Net_1268\[103]
Removing Lhs of wire \BC127_SERIAL:Net_1170\[106] = Net_183[107]
Removing Lhs of wire \BC127_SERIAL:sclk_s_wire\[108] = zero[12]
Removing Lhs of wire \BC127_SERIAL:mosi_s_wire\[109] = zero[12]
Removing Lhs of wire \BC127_SERIAL:miso_m_wire\[110] = zero[12]
Removing Lhs of wire \BC127_SERIAL:tmpOE__tx_net_0\[112] = one[16]
Removing Lhs of wire \BC127_SERIAL:tmpOE__rx_net_0\[122] = one[16]
Removing Rhs of wire \BC127_SERIAL:cts_wire\[126] = \BC127_SERIAL:Net_1264\[127]
Removing Lhs of wire \BC127_SERIAL:tmpOE__cts_net_0\[143] = one[16]
Removing Lhs of wire \BC127_SERIAL:tmpOE__rts_net_0\[148] = one[16]
Removing Lhs of wire \Control_Reg_Flag:clk\[163] = zero[12]
Removing Lhs of wire \Control_Reg_Flag:rst\[164] = zero[12]
Removing Rhs of wire Net_157[165] = \Control_Reg_Flag:control_out_0\[166]
Removing Rhs of wire Net_157[165] = \Control_Reg_Flag:control_0\[189]
Removing Lhs of wire tmpOE__pin_flag_net_0[191] = one[16]

------------------------------------------------------
Aliased 0 equations, 34 wires.
------------------------------------------------------

----------------------------------------------------------
Circuit simplification
----------------------------------------------------------

Substituting virtuals - pass 1:


----------------------------------------------------------
Circuit simplification results:

	Expanded 0 signals.
	Turned 0 signals into soft nodes.
	Maximum default expansion cost was set at 3.
----------------------------------------------------------

topld:  No errors.

CYPRESS_DIR    : C:\Program Files (x86)\Cypress\PSoC Creator\4.0\PSoC Creator\warp
Warp Program   : C:\Program Files (x86)\Cypress\PSoC Creator\4.0\PSoC Creator\warp\bin\warp.exe
Warp Arguments : -yv2 -q10 -ygs -o2 -v3 -.fftcfgtype=LE -ya -.fftprj=C:\Users\tomgm\Documents\PacAveResearch\PSOC\workareas\winter_2016_repository\MPW6050_BC127_SPP_Latency.cydsn\MPW6050_BC127_SPP_Latency.cyprj -dcpsoc3 MPW6050_BC127_SPP_Latency.v -verilog
</CYPRESSTAG>
Warp synthesis phase: Elapsed time ==> 0s.513ms
<CYPRESSTAG name="Fitter results...">
<CYPRESSTAG name="Fitter startup details...">
cyp3fit: V4.0.0.432, Family: PSoC3, Started at: Sunday, 25 June 2017 17:43:11
Options: -yv2 -q10 -ygs -o2 -v3 -.fftcfgtype=LE -ya -.fftprj=C:\Users\tomgm\Documents\PacAveResearch\PSOC\workareas\winter_2016_repository\MPW6050_BC127_SPP_Latency.cydsn\MPW6050_BC127_SPP_Latency.cyprj -d CY8C4247AZI-M485 MPW6050_BC127_SPP_Latency.v -verilog
</CYPRESSTAG>
<CYPRESSTAG name="Design parsing">
Design parsing phase: Elapsed time ==> 0s.009ms
</CYPRESSTAG>
<CYPRESSTAG name="Tech Mapping">
<CYPRESSTAG name="Initial Mapping" icon="FILE_RPT_TECHM">
<CYPRESSTAG name="Global Clock Selection" icon="FILE_RPT_TECHM">
    Fixed Function Clock 2: Automatic-assigning  clock 'bc127_uart'. Signal=Net_183_ff2
    Fixed Function Clock 3: Automatic-assigning  clock 'I2C_MPU6050_SCBCLK'. Signal=\I2C_MPU6050:Net_847_ff3\
    Fixed Function Clock 4: Automatic-assigning  clock 'SERIAL_SCBCLK'. Signal=\SERIAL:Net_847_ff4\
<CYPRESSTAG name="UDB Clock/Enable Remapping Results">
</CYPRESSTAG>
</CYPRESSTAG>

Removing unused cells resulting from optimization
Done removing unused cells.
<CYPRESSTAG name="Duplicate Macrocell detection">
</CYPRESSTAG>
</CYPRESSTAG>
<CYPRESSTAG name="Duplicate Macrocell detection">
</CYPRESSTAG>
<CYPRESSTAG name="Design Equations" icon="FILE_RPT_EQUATION">

------------------------------------------------------------
Design Equations
------------------------------------------------------------
    <CYPRESSTAG name="Pin listing">

    ------------------------------------------------------------
    Pin listing
    ------------------------------------------------------------

    Pin : Name = \I2C_MPU6050:sda(0)\
        Attributes:
            In Group/Port: True
            In Sync Option: NOSYNC
            Out Sync Option: NOSYNC
            Interrupt generated: False
            Interrupt mode: NONE
            Drive mode: OPEN_DRAIN_LO
            VTrip: CMOS
            Slew: FAST
            Input Sync needed: False
            Output Sync needed: False
            SC shield enabled: False
            POR State: ANY
            LCD Mode: COMMON
            Register Mode: RegComb
            CaSense Mode: NEITHER
            Treat as pin: True
            Is OE Registered: False
            Uses Analog: False
            Can contain Digital: True
            Is SIO: False
            SIO Output Buf: NONREGULATED
            SIO Input Buf: SINGLE_ENDED
            SIO HiFreq: LOW
            SIO Hyst: DISABLED
            SIO Vtrip: MULTIPLIER_0_5
            SIO Multiplier Index: 0
            SIO RefSel: VCC_IO
            Required Capabilitites: DIGITAL
            Initial Value: 1
            IO Voltage: 0
        PORT MAP (
            pa_out => \I2C_MPU6050:sda(0)\__PA ,
            fb => \I2C_MPU6050:sda_wire\ ,
            pad => \I2C_MPU6050:sda(0)_PAD\ );
        Properties:
        {
        }

    Pin : Name = \I2C_MPU6050:scl(0)\
        Attributes:
            In Group/Port: True
            In Sync Option: NOSYNC
            Out Sync Option: NOSYNC
            Interrupt generated: False
            Interrupt mode: NONE
            Drive mode: OPEN_DRAIN_LO
            VTrip: CMOS
            Slew: FAST
            Input Sync needed: False
            Output Sync needed: False
            SC shield enabled: False
            POR State: ANY
            LCD Mode: COMMON
            Register Mode: RegComb
            CaSense Mode: NEITHER
            Treat as pin: True
            Is OE Registered: False
            Uses Analog: False
            Can contain Digital: True
            Is SIO: False
            SIO Output Buf: NONREGULATED
            SIO Input Buf: SINGLE_ENDED
            SIO HiFreq: LOW
            SIO Hyst: DISABLED
            SIO Vtrip: MULTIPLIER_0_5
            SIO Multiplier Index: 0
            SIO RefSel: VCC_IO
            Required Capabilitites: DIGITAL
            Initial Value: 1
            IO Voltage: 0
        PORT MAP (
            pa_out => \I2C_MPU6050:scl(0)\__PA ,
            fb => \I2C_MPU6050:scl_wire\ ,
            pad => \I2C_MPU6050:scl(0)_PAD\ );
        Properties:
        {
        }

    Pin : Name = \SERIAL:tx(0)\
        Attributes:
            In Group/Port: True
            In Sync Option: NOSYNC
            Out Sync Option: NOSYNC
            Interrupt generated: False
            Interrupt mode: NONE
            Drive mode: CMOS_OUT
            VTrip: CMOS
            Slew: FAST
            Input Sync needed: False
            Output Sync needed: False
            SC shield enabled: False
            POR State: ANY
            LCD Mode: COMMON
            Register Mode: RegComb
            CaSense Mode: NEITHER
            Treat as pin: True
            Is OE Registered: False
            Uses Analog: False
            Can contain Digital: True
            Is SIO: False
            SIO Output Buf: NONREGULATED
            SIO Input Buf: SINGLE_ENDED
            SIO HiFreq: LOW
            SIO Hyst: DISABLED
            SIO Vtrip: MULTIPLIER_0_5
            SIO Multiplier Index: 0
            SIO RefSel: VCC_IO
            Required Capabilitites: DIGITAL
            Initial Value: 1
            IO Voltage: 0
        PORT MAP (
            pa_out => \SERIAL:tx(0)\__PA ,
            input => \SERIAL:tx_wire\ ,
            pad => \SERIAL:tx(0)_PAD\ );
        Properties:
        {
        }

    Pin : Name = \SERIAL:rx(0)\
        Attributes:
            In Group/Port: True
            In Sync Option: NOSYNC
            Out Sync Option: AUTO
            Interrupt generated: False
            Interrupt mode: NONE
            Drive mode: HI_Z_DIGITAL
            VTrip: CMOS
            Slew: FAST
            Input Sync needed: False
            Output Sync needed: False
            SC shield enabled: False
            POR State: ANY
            LCD Mode: COMMON
            Register Mode: RegComb
            CaSense Mode: NEITHER
            Treat as pin: True
            Is OE Registered: False
            Uses Analog: False
            Can contain Digital: True
            Is SIO: False
            SIO Output Buf: NONREGULATED
            SIO Input Buf: SINGLE_ENDED
            SIO HiFreq: LOW
            SIO Hyst: DISABLED
            SIO Vtrip: MULTIPLIER_0_5
            SIO Multiplier Index: 0
            SIO RefSel: VCC_IO
            Required Capabilitites: DIGITAL
            Initial Value: 0
            IO Voltage: 0
        PORT MAP (
            pa_out => \SERIAL:rx(0)\__PA ,
            fb => \SERIAL:rx_wire\ ,
            pad => \SERIAL:rx(0)_PAD\ );
        Properties:
        {
        }

    Pin : Name = \BC127_SERIAL:tx(0)\
        Attributes:
            In Group/Port: True
            In Sync Option: NOSYNC
            Out Sync Option: NOSYNC
            Interrupt generated: False
            Interrupt mode: NONE
            Drive mode: CMOS_OUT
            VTrip: CMOS
            Slew: FAST
            Input Sync needed: False
            Output Sync needed: False
            SC shield enabled: False
            POR State: ANY
            LCD Mode: COMMON
            Register Mode: RegComb
            CaSense Mode: NEITHER
            Treat as pin: True
            Is OE Registered: False
            Uses Analog: False
            Can contain Digital: True
            Is SIO: False
            SIO Output Buf: NONREGULATED
            SIO Input Buf: SINGLE_ENDED
            SIO HiFreq: LOW
            SIO Hyst: DISABLED
            SIO Vtrip: MULTIPLIER_0_5
            SIO Multiplier Index: 0
            SIO RefSel: VCC_IO
            Required Capabilitites: DIGITAL
            Initial Value: 1
            IO Voltage: 0
        PORT MAP (
            pa_out => \BC127_SERIAL:tx(0)\__PA ,
            input => \BC127_SERIAL:tx_wire\ ,
            pad => \BC127_SERIAL:tx(0)_PAD\ );
        Properties:
        {
        }

    Pin : Name = \BC127_SERIAL:rx(0)\
        Attributes:
            In Group/Port: True
            In Sync Option: NOSYNC
            Out Sync Option: AUTO
            Interrupt generated: False
            Interrupt mode: NONE
            Drive mode: HI_Z_DIGITAL
            VTrip: CMOS
            Slew: FAST
            Input Sync needed: False
            Output Sync needed: False
            SC shield enabled: False
            POR State: ANY
            LCD Mode: COMMON
            Register Mode: RegComb
            CaSense Mode: NEITHER
            Treat as pin: True
            Is OE Registered: False
            Uses Analog: False
            Can contain Digital: True
            Is SIO: False
            SIO Output Buf: NONREGULATED
            SIO Input Buf: SINGLE_ENDED
            SIO HiFreq: LOW
            SIO Hyst: DISABLED
            SIO Vtrip: MULTIPLIER_0_5
            SIO Multiplier Index: 0
            SIO RefSel: VCC_IO
            Required Capabilitites: DIGITAL
            Initial Value: 0
            IO Voltage: 0
        PORT MAP (
            pa_out => \BC127_SERIAL:rx(0)\__PA ,
            fb => \BC127_SERIAL:rx_wire\ ,
            pad => \BC127_SERIAL:rx(0)_PAD\ );
        Properties:
        {
        }

    Pin : Name = \BC127_SERIAL:cts(0)\
        Attributes:
            In Group/Port: True
            In Sync Option: NOSYNC
            Out Sync Option: AUTO
            Interrupt generated: False
            Interrupt mode: NONE
            Drive mode: HI_Z_DIGITAL
            VTrip: CMOS
            Slew: FAST
            Input Sync needed: False
            Output Sync needed: False
            SC shield enabled: False
            POR State: ANY
            LCD Mode: COMMON
            Register Mode: RegComb
            CaSense Mode: NEITHER
            Treat as pin: True
            Is OE Registered: False
            Uses Analog: False
            Can contain Digital: True
            Is SIO: False
            SIO Output Buf: NONREGULATED
            SIO Input Buf: SINGLE_ENDED
            SIO HiFreq: LOW
            SIO Hyst: DISABLED
            SIO Vtrip: MULTIPLIER_0_5
            SIO Multiplier Index: 0
            SIO RefSel: VCC_IO
            Required Capabilitites: DIGITAL
            Initial Value: 0
            IO Voltage: 0
        PORT MAP (
            pa_out => \BC127_SERIAL:cts(0)\__PA ,
            fb => \BC127_SERIAL:cts_wire\ ,
            pad => \BC127_SERIAL:cts(0)_PAD\ );
        Properties:
        {
        }

    Pin : Name = \BC127_SERIAL:rts(0)\
        Attributes:
            In Group/Port: True
            In Sync Option: NOSYNC
            Out Sync Option: NOSYNC
            Interrupt generated: False
            Interrupt mode: NONE
            Drive mode: CMOS_OUT
            VTrip: CMOS
            Slew: FAST
            Input Sync needed: False
            Output Sync needed: False
            SC shield enabled: False
            POR State: ANY
            LCD Mode: COMMON
            Register Mode: RegComb
            CaSense Mode: NEITHER
            Treat as pin: True
            Is OE Registered: False
            Uses Analog: False
            Can contain Digital: True
            Is SIO: False
            SIO Output Buf: NONREGULATED
            SIO Input Buf: SINGLE_ENDED
            SIO HiFreq: LOW
            SIO Hyst: DISABLED
            SIO Vtrip: MULTIPLIER_0_5
            SIO Multiplier Index: 0
            SIO RefSel: VCC_IO
            Required Capabilitites: DIGITAL
            Initial Value: 1
            IO Voltage: 0
        PORT MAP (
            pa_out => \BC127_SERIAL:rts(0)\__PA ,
            input => \BC127_SERIAL:rts_wire\ ,
            pad => \BC127_SERIAL:rts(0)_PAD\ );
        Properties:
        {
        }

    Pin : Name = pin_flag(0)
        Attributes:
            In Group/Port: True
            In Sync Option: AUTO
            Out Sync Option: NOSYNC
            Interrupt generated: False
            Interrupt mode: NONE
            Drive mode: CMOS_OUT
            VTrip: EITHER
            Slew: FAST
            Input Sync needed: False
            Output Sync needed: False
            SC shield enabled: False
            POR State: ANY
            LCD Mode: COMMON
            Register Mode: RegComb
            CaSense Mode: NEITHER
            Treat as pin: True
            Is OE Registered: False
            Uses Analog: False
            Can contain Digital: True
            Is SIO: False
            SIO Output Buf: NONREGULATED
            SIO Input Buf: SINGLE_ENDED
            SIO HiFreq: LOW
            SIO Hyst: DISABLED
            SIO Vtrip: MULTIPLIER_0_5
            SIO Multiplier Index: 0
            SIO RefSel: VCC_IO
            Required Capabilitites: DIGITAL, ROUTABLE
            Initial Value: 1
            IO Voltage: 0
        PORT MAP (
            pa_out => pin_flag(0)__PA ,
            input => Net_157 ,
            pad => pin_flag(0)_PAD );
        Properties:
        {
        }
    </CYPRESSTAG>
    <CYPRESSTAG name="Macrocell listing" icon="FILE_RPT_EQUATION">
    </CYPRESSTAG>
    <CYPRESSTAG name="Datapath listing">
    </CYPRESSTAG>
    <CYPRESSTAG name="Status register listing">
    </CYPRESSTAG>
    <CYPRESSTAG name="StatusI register listing">
    </CYPRESSTAG>
    <CYPRESSTAG name="Sync listing">
    </CYPRESSTAG>
    <CYPRESSTAG name="Control register listing">

    ------------------------------------------------------------
    Control register listing
    ------------------------------------------------------------

    controlcell: Name =\Control_Reg_Flag:Sync:ctrl_reg\
        PORT MAP (
            control_7 => \Control_Reg_Flag:control_7\ ,
            control_6 => \Control_Reg_Flag:control_6\ ,
            control_5 => \Control_Reg_Flag:control_5\ ,
            control_4 => \Control_Reg_Flag:control_4\ ,
            control_3 => \Control_Reg_Flag:control_3\ ,
            control_2 => \Control_Reg_Flag:control_2\ ,
            control_1 => \Control_Reg_Flag:control_1\ ,
            control_0 => Net_157 );
        Properties:
        {
            cy_ctrl_mode_0 = "00000000"
            cy_ctrl_mode_1 = "00000000"
            cy_ext_reset = 0
            cy_force_order = 1
            cy_init_value = "00000000"
        }
        Clock Enable: True
    </CYPRESSTAG>
    <CYPRESSTAG name="Count7 listing">
    </CYPRESSTAG>
    <CYPRESSTAG name="DRQ listing">
    </CYPRESSTAG>
    <CYPRESSTAG name="Interrupt listing">

    ------------------------------------------------------------
    Interrupt listing
    ------------------------------------------------------------

    interrupt: Name =\I2C_MPU6050:SCB_IRQ\
        PORT MAP (
            interrupt => Net_2 );
        Properties:
        {
            int_type = "10"
            is_nmi = 0
        }
    </CYPRESSTAG>
</CYPRESSTAG>
<CYPRESSTAG name="Technology mapping summary" expanded>

------------------------------------------------------------
Technology mapping summary
------------------------------------------------------------

Resource Type                 : Used : Free :  Max :  % Used
============================================================
Digital Clocks                :    0 :    4 :    4 :  0.00 %
Interrupts                    :    1 :   31 :   32 :  3.13 %
IO                            :   11 :   40 :   51 : 21.57 %
Segment LCD                   :    0 :    1 :    1 :  0.00 %
CapSense                      :    0 :    2 :    2 :  0.00 %
Die Temp                      :    0 :    1 :    1 :  0.00 %
CAN 2.0b                      :    0 :    2 :    2 :  0.00 %
Serial Communication (SCB)    :    3 :    1 :    4 : 75.00 %
DMA Channels                  :    0 :    8 :    8 :  0.00 %
Timer/Counter/PWM             :    0 :    8 :    8 :  0.00 %
UDB                           :      :      :      :        
  Macrocells                  :    0 :   32 :   32 :  0.00 %
  Unique P-terms              :    0 :   64 :   64 :  0.00 %
  Total P-terms               :    0 :      :      :        
  Datapath Cells              :    0 :    4 :    4 :  0.00 %
  Status Cells                :    0 :    4 :    4 :  0.00 %
  Control Cells               :    1 :    3 :    4 : 25.00 %
    Control Registers         :    1 :      :      :        
Comparator/Opamp              :    0 :    4 :    4 :  0.00 %
LP Comparator                 :    0 :    2 :    2 :  0.00 %
SAR ADC                       :    0 :    1 :    1 :  0.00 %
DAC                           :      :      :      :        
  7-bit IDAC                  :    0 :    2 :    2 :  0.00 %
  8-bit IDAC                  :    0 :    2 :    2 :  0.00 %
</CYPRESSTAG>
Technology Mapping: Elapsed time ==> 0s.008ms
Tech Mapping phase: Elapsed time ==> 0s.038ms
</CYPRESSTAG>
<CYPRESSTAG name="Analog Placement">
<CYPRESSTAG name="Analog Placement">
Elapsed time ==> 0.3206361s
</CYPRESSTAG>
Analog Placement phase: Elapsed time ==> 0s.504ms
</CYPRESSTAG>
<CYPRESSTAG name="Analog Routing">
<CYPRESSTAG name="Analog Routing">
Route success=True, Iterations=1 Elapsed=0.0008569 secs
</CYPRESSTAG>
Analog Routing phase: Elapsed time ==> 0s.000ms
</CYPRESSTAG>
<CYPRESSTAG name="Analog Code Generation">
============ Analog Final Answer Routes ============
Dump of CyAnalogRoutingResultsDB
Map of net to items {
}
Map of item to net {
}
Mux Info {
}
Analog Code Generation phase: Elapsed time ==> 0s.036ms
</CYPRESSTAG>
<CYPRESSTAG name="Digital Placement">
<CYPRESSTAG name="Detailed placement messages">
I2659: No Constrained paths were found. The placer will run in non-timing driven mode.
I2076: Total run-time: 0.2 sec.

</CYPRESSTAG>
<CYPRESSTAG name="PLD Packing">
<CYPRESSTAG name="PLD Packing Summary">
No PLDs were packed.
</CYPRESSTAG>
PLD Packing: Elapsed time ==> 0s.000ms
</CYPRESSTAG>
<CYPRESSTAG name="Partitioning">
<CYPRESSTAG name="Initial Partitioning Summary">
Initial Partitioning Summary not displayed at this verbose level.</CYPRESSTAG>
<CYPRESSTAG name="Final Partitioning Summary">
Final Partitioning Summary not displayed at this verbose level.</CYPRESSTAG>
Partitioning: Elapsed time ==> 0s.012ms
</CYPRESSTAG>
<CYPRESSTAG name="Final Placement Summary">

------------------------------------------------------------
Final Placement Summary
------------------------------------------------------------

       Resource Type :      Count : Avg Inputs : Avg Outputs
    ========================================================
                 UDB :          1 :       0.00 :       0.00
<CYPRESSTAG name="Final Placement Details">
<CYPRESSTAG name="Component Details">

------------------------------------------------------------
Component Placement Details
------------------------------------------------------------
UDB [UDB=(0,0)] is empty.
UDB [UDB=(0,1)] is empty.
UDB [UDB=(1,0)] is empty.
UDB [UDB=(1,1)] contents:
controlcell: Name =\Control_Reg_Flag:Sync:ctrl_reg\
    PORT MAP (
        control_7 => \Control_Reg_Flag:control_7\ ,
        control_6 => \Control_Reg_Flag:control_6\ ,
        control_5 => \Control_Reg_Flag:control_5\ ,
        control_4 => \Control_Reg_Flag:control_4\ ,
        control_3 => \Control_Reg_Flag:control_3\ ,
        control_2 => \Control_Reg_Flag:control_2\ ,
        control_1 => \Control_Reg_Flag:control_1\ ,
        control_0 => Net_157 );
    Properties:
    {
        cy_ctrl_mode_0 = "00000000"
        cy_ctrl_mode_1 = "00000000"
        cy_ext_reset = 0
        cy_force_order = 1
        cy_init_value = "00000000"
    }
    Clock Enable: True

Intr container @ [IntrContainer=(0)]: 
  Intr@ [IntrContainer=(0)][IntrId=(9)] 
    interrupt: Name =\I2C_MPU6050:SCB_IRQ\
        PORT MAP (
            interrupt => Net_2 );
        Properties:
        {
            int_type = "10"
            is_nmi = 0
        }
Drq container @ [DrqContainer=(0)]: empty
Port 0 contains the following IO cells:
[IoId=0]: 
Pin : Name = pin_flag(0)
    Attributes:
        In Group/Port: True
        In Sync Option: AUTO
        Out Sync Option: NOSYNC
        Interrupt generated: False
        Interrupt mode: NONE
        Drive mode: CMOS_OUT
        VTrip: EITHER
        Slew: FAST
        Input Sync needed: False
        Output Sync needed: False
        SC shield enabled: False
        POR State: ANY
        LCD Mode: COMMON
        Register Mode: RegComb
        CaSense Mode: NEITHER
        Treat as pin: True
        Is OE Registered: False
        Uses Analog: False
        Can contain Digital: True
        Is SIO: False
        SIO Output Buf: NONREGULATED
        SIO Input Buf: SINGLE_ENDED
        SIO HiFreq: LOW
        SIO Hyst: DISABLED
        SIO Vtrip: MULTIPLIER_0_5
        SIO Multiplier Index: 0
        SIO RefSel: VCC_IO
        Required Capabilitites: DIGITAL, ROUTABLE
        Initial Value: 1
        IO Voltage: 0
    PORT MAP (
        pa_out => pin_flag(0)__PA ,
        input => Net_157 ,
        pad => pin_flag(0)_PAD );
    Properties:
    {
    }

[IoId=4]: 
Pin : Name = \I2C_MPU6050:scl(0)\
    Attributes:
        In Group/Port: True
        In Sync Option: NOSYNC
        Out Sync Option: NOSYNC
        Interrupt generated: False
        Interrupt mode: NONE
        Drive mode: OPEN_DRAIN_LO
        VTrip: CMOS
        Slew: FAST
        Input Sync needed: False
        Output Sync needed: False
        SC shield enabled: False
        POR State: ANY
        LCD Mode: COMMON
        Register Mode: RegComb
        CaSense Mode: NEITHER
        Treat as pin: True
        Is OE Registered: False
        Uses Analog: False
        Can contain Digital: True
        Is SIO: False
        SIO Output Buf: NONREGULATED
        SIO Input Buf: SINGLE_ENDED
        SIO HiFreq: LOW
        SIO Hyst: DISABLED
        SIO Vtrip: MULTIPLIER_0_5
        SIO Multiplier Index: 0
        SIO RefSel: VCC_IO
        Required Capabilitites: DIGITAL
        Initial Value: 1
        IO Voltage: 0
    PORT MAP (
        pa_out => \I2C_MPU6050:scl(0)\__PA ,
        fb => \I2C_MPU6050:scl_wire\ ,
        pad => \I2C_MPU6050:scl(0)_PAD\ );
    Properties:
    {
    }

[IoId=5]: 
Pin : Name = \I2C_MPU6050:sda(0)\
    Attributes:
        In Group/Port: True
        In Sync Option: NOSYNC
        Out Sync Option: NOSYNC
        Interrupt generated: False
        Interrupt mode: NONE
        Drive mode: OPEN_DRAIN_LO
        VTrip: CMOS
        Slew: FAST
        Input Sync needed: False
        Output Sync needed: False
        SC shield enabled: False
        POR State: ANY
        LCD Mode: COMMON
        Register Mode: RegComb
        CaSense Mode: NEITHER
        Treat as pin: True
        Is OE Registered: False
        Uses Analog: False
        Can contain Digital: True
        Is SIO: False
        SIO Output Buf: NONREGULATED
        SIO Input Buf: SINGLE_ENDED
        SIO HiFreq: LOW
        SIO Hyst: DISABLED
        SIO Vtrip: MULTIPLIER_0_5
        SIO Multiplier Index: 0
        SIO RefSel: VCC_IO
        Required Capabilitites: DIGITAL
        Initial Value: 1
        IO Voltage: 0
    PORT MAP (
        pa_out => \I2C_MPU6050:sda(0)\__PA ,
        fb => \I2C_MPU6050:sda_wire\ ,
        pad => \I2C_MPU6050:sda(0)_PAD\ );
    Properties:
    {
    }

Port 1 contains the following IO cells:
[IoId=0]: 
Pin : Name = \BC127_SERIAL:rx(0)\
    Attributes:
        In Group/Port: True
        In Sync Option: NOSYNC
        Out Sync Option: AUTO
        Interrupt generated: False
        Interrupt mode: NONE
        Drive mode: HI_Z_DIGITAL
        VTrip: CMOS
        Slew: FAST
        Input Sync needed: False
        Output Sync needed: False
        SC shield enabled: False
        POR State: ANY
        LCD Mode: COMMON
        Register Mode: RegComb
        CaSense Mode: NEITHER
        Treat as pin: True
        Is OE Registered: False
        Uses Analog: False
        Can contain Digital: True
        Is SIO: False
        SIO Output Buf: NONREGULATED
        SIO Input Buf: SINGLE_ENDED
        SIO HiFreq: LOW
        SIO Hyst: DISABLED
        SIO Vtrip: MULTIPLIER_0_5
        SIO Multiplier Index: 0
        SIO RefSel: VCC_IO
        Required Capabilitites: DIGITAL
        Initial Value: 0
        IO Voltage: 0
    PORT MAP (
        pa_out => \BC127_SERIAL:rx(0)\__PA ,
        fb => \BC127_SERIAL:rx_wire\ ,
        pad => \BC127_SERIAL:rx(0)_PAD\ );
    Properties:
    {
    }

[IoId=1]: 
Pin : Name = \BC127_SERIAL:tx(0)\
    Attributes:
        In Group/Port: True
        In Sync Option: NOSYNC
        Out Sync Option: NOSYNC
        Interrupt generated: False
        Interrupt mode: NONE
        Drive mode: CMOS_OUT
        VTrip: CMOS
        Slew: FAST
        Input Sync needed: False
        Output Sync needed: False
        SC shield enabled: False
        POR State: ANY
        LCD Mode: COMMON
        Register Mode: RegComb
        CaSense Mode: NEITHER
        Treat as pin: True
        Is OE Registered: False
        Uses Analog: False
        Can contain Digital: True
        Is SIO: False
        SIO Output Buf: NONREGULATED
        SIO Input Buf: SINGLE_ENDED
        SIO HiFreq: LOW
        SIO Hyst: DISABLED
        SIO Vtrip: MULTIPLIER_0_5
        SIO Multiplier Index: 0
        SIO RefSel: VCC_IO
        Required Capabilitites: DIGITAL
        Initial Value: 1
        IO Voltage: 0
    PORT MAP (
        pa_out => \BC127_SERIAL:tx(0)\__PA ,
        input => \BC127_SERIAL:tx_wire\ ,
        pad => \BC127_SERIAL:tx(0)_PAD\ );
    Properties:
    {
    }

[IoId=2]: 
Pin : Name = \BC127_SERIAL:cts(0)\
    Attributes:
        In Group/Port: True
        In Sync Option: NOSYNC
        Out Sync Option: AUTO
        Interrupt generated: False
        Interrupt mode: NONE
        Drive mode: HI_Z_DIGITAL
        VTrip: CMOS
        Slew: FAST
        Input Sync needed: False
        Output Sync needed: False
        SC shield enabled: False
        POR State: ANY
        LCD Mode: COMMON
        Register Mode: RegComb
        CaSense Mode: NEITHER
        Treat as pin: True
        Is OE Registered: False
        Uses Analog: False
        Can contain Digital: True
        Is SIO: False
        SIO Output Buf: NONREGULATED
        SIO Input Buf: SINGLE_ENDED
        SIO HiFreq: LOW
        SIO Hyst: DISABLED
        SIO Vtrip: MULTIPLIER_0_5
        SIO Multiplier Index: 0
        SIO RefSel: VCC_IO
        Required Capabilitites: DIGITAL
        Initial Value: 0
        IO Voltage: 0
    PORT MAP (
        pa_out => \BC127_SERIAL:cts(0)\__PA ,
        fb => \BC127_SERIAL:cts_wire\ ,
        pad => \BC127_SERIAL:cts(0)_PAD\ );
    Properties:
    {
    }

[IoId=3]: 
Pin : Name = \BC127_SERIAL:rts(0)\
    Attributes:
        In Group/Port: True
        In Sync Option: NOSYNC
        Out Sync Option: NOSYNC
        Interrupt generated: False
        Interrupt mode: NONE
        Drive mode: CMOS_OUT
        VTrip: CMOS
        Slew: FAST
        Input Sync needed: False
        Output Sync needed: False
        SC shield enabled: False
        POR State: ANY
        LCD Mode: COMMON
        Register Mode: RegComb
        CaSense Mode: NEITHER
        Treat as pin: True
        Is OE Registered: False
        Uses Analog: False
        Can contain Digital: True
        Is SIO: False
        SIO Output Buf: NONREGULATED
        SIO Input Buf: SINGLE_ENDED
        SIO HiFreq: LOW
        SIO Hyst: DISABLED
        SIO Vtrip: MULTIPLIER_0_5
        SIO Multiplier Index: 0
        SIO RefSel: VCC_IO
        Required Capabilitites: DIGITAL
        Initial Value: 1
        IO Voltage: 0
    PORT MAP (
        pa_out => \BC127_SERIAL:rts(0)\__PA ,
        input => \BC127_SERIAL:rts_wire\ ,
        pad => \BC127_SERIAL:rts(0)_PAD\ );
    Properties:
    {
    }

Port 2 is empty
Port 3 is empty
Port 4 is empty
Port 5 is empty
Port 6 is empty
Port 7 contains the following IO cells:
[IoId=0]: 
Pin : Name = \SERIAL:rx(0)\
    Attributes:
        In Group/Port: True
        In Sync Option: NOSYNC
        Out Sync Option: AUTO
        Interrupt generated: False
        Interrupt mode: NONE
        Drive mode: HI_Z_DIGITAL
        VTrip: CMOS
        Slew: FAST
        Input Sync needed: False
        Output Sync needed: False
        SC shield enabled: False
        POR State: ANY
        LCD Mode: COMMON
        Register Mode: RegComb
        CaSense Mode: NEITHER
        Treat as pin: True
        Is OE Registered: False
        Uses Analog: False
        Can contain Digital: True
        Is SIO: False
        SIO Output Buf: NONREGULATED
        SIO Input Buf: SINGLE_ENDED
        SIO HiFreq: LOW
        SIO Hyst: DISABLED
        SIO Vtrip: MULTIPLIER_0_5
        SIO Multiplier Index: 0
        SIO RefSel: VCC_IO
        Required Capabilitites: DIGITAL
        Initial Value: 0
        IO Voltage: 0
    PORT MAP (
        pa_out => \SERIAL:rx(0)\__PA ,
        fb => \SERIAL:rx_wire\ ,
        pad => \SERIAL:rx(0)_PAD\ );
    Properties:
    {
    }

[IoId=1]: 
Pin : Name = \SERIAL:tx(0)\
    Attributes:
        In Group/Port: True
        In Sync Option: NOSYNC
        Out Sync Option: NOSYNC
        Interrupt generated: False
        Interrupt mode: NONE
        Drive mode: CMOS_OUT
        VTrip: CMOS
        Slew: FAST
        Input Sync needed: False
        Output Sync needed: False
        SC shield enabled: False
        POR State: ANY
        LCD Mode: COMMON
        Register Mode: RegComb
        CaSense Mode: NEITHER
        Treat as pin: True
        Is OE Registered: False
        Uses Analog: False
        Can contain Digital: True
        Is SIO: False
        SIO Output Buf: NONREGULATED
        SIO Input Buf: SINGLE_ENDED
        SIO HiFreq: LOW
        SIO Hyst: DISABLED
        SIO Vtrip: MULTIPLIER_0_5
        SIO Multiplier Index: 0
        SIO RefSel: VCC_IO
        Required Capabilitites: DIGITAL
        Initial Value: 1
        IO Voltage: 0
    PORT MAP (
        pa_out => \SERIAL:tx(0)\__PA ,
        input => \SERIAL:tx_wire\ ,
        pad => \SERIAL:tx(0)_PAD\ );
    Properties:
    {
    }

ARM group 0: empty
CAN 2.0b group 0: empty
Clock group 0: 
    Clock Block @ F(Clock,0): 
    m0s8clockblockcell: Name =ClockBlock
        PORT MAP (
            hfclk => ClockBlock_HFCLK ,
            imo => ClockBlock_IMO ,
            ext => ClockBlock_EXTCLK ,
            sysclk => ClockBlock_SYSCLK ,
            ilo => ClockBlock_ILO ,
            lfclk => ClockBlock_LFCLK ,
            wco => ClockBlock_WCO ,
            dsi_in_0 => ClockBlock_Routed1 ,
            ff_div_2 => Net_183_ff2 ,
            ff_div_3 => \I2C_MPU6050:Net_847_ff3\ ,
            ff_div_4 => \SERIAL:Net_847_ff4\ );
        Properties:
        {
        }
PM group 0: empty
SPC group 0: empty
WDT group 0: empty
FSS group 0: empty
LP Comparator group 0: empty
Serial Communication (SCB) group 0: 
    SCB Block @ F(SCB,0): 
    m0s8scbcell: Name =\BC127_SERIAL:SCB\
        PORT MAP (
            clock => Net_183_ff2 ,
            interrupt => Net_44 ,
            rx => \BC127_SERIAL:rx_wire\ ,
            tx => \BC127_SERIAL:tx_wire\ ,
            cts => \BC127_SERIAL:cts_wire\ ,
            rts => \BC127_SERIAL:rts_wire\ ,
            mosi_m => \BC127_SERIAL:mosi_m_wire\ ,
            select_m_3 => \BC127_SERIAL:select_m_wire_3\ ,
            select_m_2 => \BC127_SERIAL:select_m_wire_2\ ,
            select_m_1 => \BC127_SERIAL:select_m_wire_1\ ,
            select_m_0 => \BC127_SERIAL:select_m_wire_0\ ,
            sclk_m => \BC127_SERIAL:sclk_m_wire\ ,
            miso_s => \BC127_SERIAL:miso_s_wire\ ,
            tx_req => Net_47 ,
            rx_req => Net_46 );
        Properties:
        {
            cy_registers = ""
            scb_mode = 2
        }
    SCB Block @ F(SCB,1): 
    m0s8scbcell: Name =\I2C_MPU6050:SCB\
        PORT MAP (
            clock => \I2C_MPU6050:Net_847_ff3\ ,
            interrupt => Net_2 ,
            tx => \I2C_MPU6050:tx_wire\ ,
            rts => \I2C_MPU6050:rts_wire\ ,
            mosi_m => \I2C_MPU6050:mosi_m_wire\ ,
            select_m_3 => \I2C_MPU6050:select_m_wire_3\ ,
            select_m_2 => \I2C_MPU6050:select_m_wire_2\ ,
            select_m_1 => \I2C_MPU6050:select_m_wire_1\ ,
            select_m_0 => \I2C_MPU6050:select_m_wire_0\ ,
            sclk_m => \I2C_MPU6050:sclk_m_wire\ ,
            miso_s => \I2C_MPU6050:miso_s_wire\ ,
            scl => \I2C_MPU6050:scl_wire\ ,
            sda => \I2C_MPU6050:sda_wire\ ,
            tx_req => Net_11 ,
            rx_req => Net_10 );
        Properties:
        {
            cy_registers = ""
            scb_mode = 0
        }
    SCB Block @ F(SCB,3): 
    m0s8scbcell: Name =\SERIAL:SCB\
        PORT MAP (
            clock => \SERIAL:Net_847_ff4\ ,
            interrupt => Net_5 ,
            rx => \SERIAL:rx_wire\ ,
            tx => \SERIAL:tx_wire\ ,
            rts => \SERIAL:rts_wire\ ,
            mosi_m => \SERIAL:mosi_m_wire\ ,
            select_m_3 => \SERIAL:select_m_wire_3\ ,
            select_m_2 => \SERIAL:select_m_wire_2\ ,
            select_m_1 => \SERIAL:select_m_wire_1\ ,
            select_m_0 => \SERIAL:select_m_wire_0\ ,
            sclk_m => \SERIAL:sclk_m_wire\ ,
            miso_s => \SERIAL:miso_s_wire\ ,
            tx_req => Net_28 ,
            rx_req => Net_27 );
        Properties:
        {
            cy_registers = ""
            scb_mode = 2
        }
CapSense group 0: empty
8-bit IDAC group 0: empty
7-bit IDAC group 0: empty
Timer/Counter/PWM group 0: empty
Comparator/Opamp group 0: empty
Die Temp group 0: empty
SAR ADC group 0: empty
Segment LCD group 0: empty
CLK_GEN group 0: 
    M0S8 Clock Gen Block @ F(CLK_GEN,0): 
    m0s8clockgenblockcell: Name =ClockGenBlock
        PORT MAP (
             );
        Properties:
        {
        }
LPCOMPBLOCK group 0: empty
PASSBLOCK group 0: empty
ANAPUMP group 0: empty
GANGED_PICU group 0: empty
WCO group 0: empty
M0S8DMAC group 0: empty
</CYPRESSTAG>
<CYPRESSTAG name="Port Configuration Details">

------------------------------------------------------------
Port Configuration report
------------------------------------------------------------
     |     |       | Interrupt |                  |                       | 
Port | Pin | Fixed |      Type |       Drive Mode |                  Name | Connections
-----+-----+-------+-----------+------------------+-----------------------+----------------------------
   0 |   0 |     * |      NONE |         CMOS_OUT |           pin_flag(0) | In(Net_157)
     |   4 |     * |      NONE |    OPEN_DRAIN_LO |  \I2C_MPU6050:scl(0)\ | FB(\I2C_MPU6050:scl_wire\)
     |   5 |     * |      NONE |    OPEN_DRAIN_LO |  \I2C_MPU6050:sda(0)\ | FB(\I2C_MPU6050:sda_wire\)
-----+-----+-------+-----------+------------------+-----------------------+----------------------------
   1 |   0 |     * |      NONE |     HI_Z_DIGITAL |  \BC127_SERIAL:rx(0)\ | FB(\BC127_SERIAL:rx_wire\)
     |   1 |     * |      NONE |         CMOS_OUT |  \BC127_SERIAL:tx(0)\ | In(\BC127_SERIAL:tx_wire\)
     |   2 |     * |      NONE |     HI_Z_DIGITAL | \BC127_SERIAL:cts(0)\ | FB(\BC127_SERIAL:cts_wire\)
     |   3 |     * |      NONE |         CMOS_OUT | \BC127_SERIAL:rts(0)\ | In(\BC127_SERIAL:rts_wire\)
-----+-----+-------+-----------+------------------+-----------------------+----------------------------
   7 |   0 |     * |      NONE |     HI_Z_DIGITAL |        \SERIAL:rx(0)\ | FB(\SERIAL:rx_wire\)
     |   1 |     * |      NONE |         CMOS_OUT |        \SERIAL:tx(0)\ | In(\SERIAL:tx_wire\)
-------------------------------------------------------------------------------------------------------
</CYPRESSTAG>
</CYPRESSTAG>
</CYPRESSTAG>
Digital component placer commit/Report: Elapsed time ==> 0s.001ms
Digital Placement phase: Elapsed time ==> 0s.433ms
</CYPRESSTAG>
<CYPRESSTAG name="Digital Routing">
Routing successful.
Digital Routing phase: Elapsed time ==> 0s.668ms
</CYPRESSTAG>
<CYPRESSTAG name="Bitstream Generation">
Bitstream Generation phase: Elapsed time ==> 0s.273ms
</CYPRESSTAG>
<CYPRESSTAG name="Bitstream Verification">
Bitstream Verification phase: Elapsed time ==> 0s.027ms
</CYPRESSTAG>
<CYPRESSTAG name="Static timing analysis">
Timing report is in MPW6050_BC127_SPP_Latency_timing.html.
Static timing analysis phase: Elapsed time ==> 0s.211ms
</CYPRESSTAG>
<CYPRESSTAG name="Data reporting">
Data reporting phase: Elapsed time ==> 0s.000ms
</CYPRESSTAG>
<CYPRESSTAG name="Database update...">
Design database save phase: Elapsed time ==> 0s.187ms
</CYPRESSTAG>
cydsfit: Elapsed time ==> 2s.445ms
</CYPRESSTAG>
Fitter phase: Elapsed time ==> 2s.446ms
API generation phase: Elapsed time ==> 2s.127ms
Dependency generation phase: Elapsed time ==> 0s.046ms
Cleanup phase: Elapsed time ==> 0s.003ms
